{
  "development": {
    "username": "postgres",
    "password": "psql123",
    "database": "laundry",
    "host": "127.0.0.1",
    "dialect": "postgres",
    "port": "32769"
  },
  "test": {
    "username": "postgres",
    "password": "psql123",
    "database": "laundry",
    "host": "127.0.0.1",
    "dialect": "postgres",
    "port": "32769"
  },
  "production": {
    "username": "postgres",
    "password": "psql123",
    "database": "laundry",
    "host": "127.0.0.1",
    "dialect": "postgres",
    "port": "32769"
  }
}
